<?xml version="1.0" encoding="UTF-8" standalone="no"?>
<svg
   xmlns:dc="http://purl.org/dc/elements/1.1/"
   xmlns:cc="http://creativecommons.org/ns#"
   xmlns:rdf="http://www.w3.org/1999/02/22-rdf-syntax-ns#"
   xmlns:svg="http://www.w3.org/2000/svg"
   xmlns="http://www.w3.org/2000/svg"
   xmlns:sodipodi="http://sodipodi.sourceforge.net/DTD/sodipodi-0.dtd"
   xmlns:inkscape="http://www.inkscape.org/namespaces/inkscape"
   enable-background="new 0 0 527.634 359.794"
   viewBox="0 0 120.00001 35.979499"
   version="1.1"
   id="svg43"
   sodipodi:docname="logo.svg"
   width="120"
   height="35.9795"
   inkscape:version="0.92.3 (2405546, 2018-03-11)">
  <metadata
     id="metadata49">
    <rdf:RDF>
      <cc:Work
         rdf:about="">
        <dc:format>image/svg+xml</dc:format>
        <dc:type
           rdf:resource="http://purl.org/dc/dcmitype/StillImage" />
        <dc:title></dc:title>
      </cc:Work>
    </rdf:RDF>
  </metadata>
  <defs
     id="defs47" />
  <sodipodi:namedview
     pagecolor="#ffffff"
     bordercolor="#666666"
     borderopacity="1"
     objecttolerance="10"
     gridtolerance="10"
     guidetolerance="10"
     inkscape:pageopacity="0"
     inkscape:pageshadow="2"
     inkscape:window-width="1920"
     inkscape:window-height="1057"
     id="namedview45"
     showgrid="false"
     inkscape:zoom="10.494894"
     inkscape:cx="60"
     inkscape:cy="5.6932057"
     inkscape:window-x="1912"
     inkscape:window-y="-8"
     inkscape:window-maximized="1"
     inkscape:current-layer="svg43"
     fit-margin-top="0"
     fit-margin-left="0"
     fit-margin-right="0"
     fit-margin-bottom="0" />
  <linearGradient
     id="a"
     gradientUnits="userSpaceOnUse"
     x1="3.0221"
     x2="524.61188"
     y1="270.78131"
     y2="270.78131"
     gradientTransform="translate(0,-293.794)">
    <stop
       offset="0"
       stop-color="#236ebc"
       id="stop2" />
    <stop
       offset="1"
       stop-color="#fff"
       id="stop4" />
  </linearGradient>
  <linearGradient
     id="b"
     gradientUnits="userSpaceOnUse"
     x1="175.8168"
     x2="175.8168"
     y1="297.08841"
     y2="162.87579"
     gradientTransform="translate(0,-293.794)">
    <stop
       offset="0"
       stop-color="#eb2f48"
       id="stop7" />
    <stop
       offset="1"
       stop-color="#f3b327"
       id="stop9" />
  </linearGradient>
  <linearGradient
     id="c"
     gradientUnits="userSpaceOnUse"
     x1="298.98911"
     x2="298.98911"
     y1="322.0155"
     y2="125.4525"
     gradientTransform="translate(0,-293.794)">
    <stop
       offset="0"
       stop-color="#ea194e"
       id="stop12" />
    <stop
       offset="1"
       stop-color="#f7ed18"
       id="stop14" />
  </linearGradient>
  <g
     id="g846"
     transform="matrix(0.1,0,0,0.1,33.61823,29.379399)">
    <path
       inkscape:connector-curvature="0"
       id="path17"
       d="m 20.741,62.398997 c -2.171,0 -5.851,-0.966 -7.085,-3.628 -4.32,-9.314 -12.816,-43.366 -13.652,-75.245 -0.052,-0.926 0.519,-26.652 2.395,-30.751 3.185,-6.957 6.491,-8.821 9.604,-10.134 81.489,-34.362 169.272,-51.065997 268.368,-51.065997 31.609,0 64.048,1.64 99.169,5.011 44.417,4.264997 75.192,10.539997 106.225,21.661997 43.579,15.618 42.236,22.885 41.73,25.62 -1.13,6.105 -11.625,7.472 -28.192,7.697 l -0.508,0.007 c -43.579,0.611 -118.698,5.94 -186.98,18.947 -97.085,18.492 -149.141,32.3310003 -206.295,54.844 -26.044,10.259 -69.73,29.022 -81.712,36.275 -0.836,0.506 -1.867,0.761 -3.067,0.761 z" />
    <path
       style="fill:url(#a)"
       inkscape:connector-curvature="0"
       id="path19"
       d="m 3.032,-16.553003 c -0.107,-1.942 0.687,-26.285 2.124,-29.423 2.892,-6.315 5.672,-7.619 8.043,-8.619 C 132.551,-104.923 254.282,-112.428 379.282,-100.428 c 41.073,3.942997 72.554,9.691997 105.5,21.499997 10.106,3.622 41.065,15.362 39.792,22.25 -0.932,5.037 -19.285,5.158 -25.792,5.25 -50.71,0.712 -124.5,7 -187.5,19 -102.124,19.452 -152.25,33.5000003 -206.834,55 -24.891,9.805 -69.5,28.833 -82.167,36.5 -1.41,0.854 -5.181,-0.066 -5.875,-1.563 -3.999,-8.624 -12.536,-42.114 -13.374,-74.062 z" />
    <text
       y="27.905884"
       x="314.25989"
       style="font-size:2px;font-family:ArialMT;fill:#ff0000"
       id="text21"
       font-size="2">I don’t like bugs!</text>
    <path
       inkscape:connector-curvature="0"
       id="path23"
       d="m 489.784,-108.2 v 1.688 h 6 v 12.499997 h 2.375 V -106.512 h 6 v -1.688 z m 16.531,0 v 14.187997 h 2.313 V -102.387 c 0,-0.415 -0.031,-2.228 -0.031,-3.531 h 0.031 l 5,11.905997 h 2.375 l 4.969,-11.905997 h 0.063 c 0,1.323 -0.063,3.116 -0.063,3.531 v 8.374997 h 2.313 V -108.2 h -3.406 l -5.031,11.999997 h -0.031 L 509.754,-108.2 Z" />
    <path
       inkscape:connector-curvature="0"
       id="path25"
       d="m 216.758,-293.07 c -22.451,2.664 -26.4,15.387 -27.129,24.591 -11.151,-6.254 -23.084,-6.853 -35.58,-1.706 -9.095,3.745 -14.674,11.818 -14.772,21.002 -14.07,10.517 -22.197,21.82 -28.454,39.627 -2.071,5.896 -3.069,12.137 -3.069,18.35899 0,14.411 5.351,28.722 15.094,38.413 l 5.499,5.469 5.76,-22.608 -0.815,-1.518 c -0.987,-1.838 -1.719,-3.45 -2.29,-4.891 l 4.296,3.306 10.871,-20.78399 -0.656,-1.828 c -0.49,-1.366 -0.817,-2.598 -1.082,-3.763 0.6,0.43 4.704,3.359 4.704,3.359 l 2.635,-2.278 c 0.911,-0.788 1.816,-1.479 2.708,-2.101 -3.157,6.83699 -6.171,16.17599 -6.171,27.00099 0,1.29 0.043,2.602 0.133,3.932 1.435,21.106 13.898,34.491 25.467,36.805 l 5.116,1.023 0.679,-20.045 -1.175,-1.322 c -1.071,-1.204 -1.857,-2.632 -2.452,-4.086 1.664,0.92 3.854,2.13 3.854,2.13 l 1.957,-13.816 -1.406,-1.54 c -0.987,-1.081 -1.737,-2.778 -2.296,-4.654 l 3.794,2.227 9.887,-15.887 -0.356,-1.731 c -0.203,-0.986 -0.29,-1.916 -0.409,-2.863 l 2.218,2.154 2.736,-1.215 c 0.279,-0.124 0.681,-0.28 1.003,-0.416 -0.289,0.734 -0.629,1.454 -0.85,2.205 -0.556,1.885 -0.828,3.835 -0.828,5.79 0,3.815 1.041,7.645 3.063,11.034 3.182,5.331 8.405,9.004 14.71,10.341 10.384,2.203 18.645,-2.682 22.664,-13.402 0.607,-1.619 1.003,-3.357 1.27,-5.15 16.632,23.629 36.427,57.984 41.847,82.372004 3.583,16.128 4.629,40.814 4.629,64.159 0,25.8149997 -1.277,49.933 -1.824,59.071 -58.939,2.373 -112.195,13.702 -158.269,33.82 l -19.433,8.485 h 308.437 l -9.997,-7.902 c -17.468,-13.804 -46.58,-30.562 -73.014,-34.147 -1.411,-18.2150003 -8.362,-98.197 -24.359,-140.191004 -4.708,-12.355 -10.856,-26.479 -19.947,-41.331 l 5.221,-7.179 c 5.566,-7.653 7.532,-15.932 7.532,-25.092 0,-7.52199 -1.336,-15.66199 -3.083,-24.51799 1.83,1.202 3.629,2.421 4.979,3.42 l 3.387,2.503 c 0,0 3.128,-3.816 3.234,-3.946 0.006,0.156 0.042,0.311 0.042,0.466 0,0.564 -0.04,1.123 -0.13,1.663 l -0.314,1.89 17.04,22.34199 2.479,-8.35599 c 1.801,-6.069 2.696,-11.872 2.696,-17.329 0,-9.245 -2.571,-17.497 -7.667,-24.367 -8.608,-11.6 -19.694,-17.288 -31.484,-22.995 -4.36,-14.527 -16.887,-22.825 -34.391,-22.643 -0.961,-2.342 -2.478,-4.491 -4.596,-6.222 -6.453,-5.269 -17.67,-6.997 -33.343,-5.137 z m 40.695,91.332 c 0,0 0.867,-1.058 1.211,-1.476 0.007,0.216 0.044,0.43 0.044,0.645 0,0.808 -0.057,1.604 -0.186,2.361 l -0.379,2.197 8.933,9.35899 c 0,0 4.545,-3.488 5.287,-4.058 -0.25,1.356 -0.599,2.677 -1.15,3.781 l -1.307,2.611 8.504,10.049 c 0,0 0.939,-0.854 1.861,-1.692 -0.089,0.945 -0.168,1.863 -0.22,2.692 l -0.05,0.799 c 0,0 5.104,16.77 5.132,16.861 -8.712,-14.225 -20.18,-29.113 -35.756,-43.79599 1.143,0.306 2.171,0.628 2.985,0.959 l 3.021,1.227 z" />
    <path
       style="fill:#a28f48"
       inkscape:connector-curvature="0"
       id="path27"
       d="m 223.065,-206.747 c 15.342,15.80699 52.218,70.38699 60.189,106.24999 8.818,39.688004 2.656,128.403004 2.656,128.403004 l 20.285,6.222 19.121,-6.222 c 0,0 -6.642,-96.081 -24.352,-142.571004 -8.987,-23.588 -24.796,-58.888 -64.175,-92.08199 -11.089,-11.401 -12.831,-6.444 -13.724,0 z" />
    <path
       style="fill:#16a252"
       inkscape:connector-curvature="0"
       id="path29"
       d="m 251.374,-277.161 c 11.956,-0.886 29.666,2.214 34.094,21.253 12.84,6.199 23.351,11.424 31.547,22.471 10.183,13.727 6.531,30.219 4.283,37.798 l -10.593,-13.888 c 0.995,-5.978 -2.225,-12.346 -2.225,-12.346 0,0 -4.085,5.039 -6.044,7.372 -4.583,-3.388 -13.848,-9.107 -13.981,-8.975 4.981,24.242 8.967,41.50999 -1.66,56.12099 l -2.324,-7.637 c 0.332,-5.313 1.661,-14.28 1.661,-14.28 l -7.306,6.642 -3.654,-4.317 c 2.989,-5.977 1.882,-14.94299 1.882,-14.94299 l -9.521,7.307 -4.649,-4.871 c 1.107,-6.42 -1.771,-13.727 -1.771,-13.727 l -7.084,8.635 c -7.083,-2.878 -17.932,-3.542 -31.657,-0.886 -7.225,1.398 -22.139,6.421 -28.116,9.076 l -7.748,-7.526 c 0,0 -0.886,6.863 0.664,14.38999 l -6.674,10.724 -8.037,-4.717 c 0,0 0.101,11.04 4.749,16.132 l -0.763,5.388 -6.542,-3.616 c 0,0 0,9.52 5.313,15.497 l -0.442,13.062 c -9.962,-1.992 -20.664,-14.325 -21.918,-32.765 -1.55,-22.803 12.176,-39.84999 12.176,-39.84999 0,0 -7.969,0.885 -16.161,7.97 l -9.298,-6.642 c 0,0 -1.329,5.534 1.771,14.168 l -7.527,14.39199 -8.634,-6.643 c 0,0 -2.214,5.092 4.206,17.047 l -3.42,13.423 c -12.486,-12.419 -17.485,-33.624 -10.97,-52.16499 5.756,-16.383 13.283,-27.895 28.78,-38.964 -0.885,-8.855 4.428,-15.939 11.954,-19.039 16.727,-6.888 29.223,-1.328 38.079,5.757 0.443,-7.971 -2.656,-25.239 23.466,-28.338 28.309,-3.36 33.651,6.196 34.094,11.51 z" />
    <path
       style="fill:#bfb07b"
       inkscape:connector-curvature="0"
       id="path31"
       d="M 399.73,61.571997 H 125.24 c 51.75,-22.597 107.095,-31.895 160.67,-33.666 h 39.406 c 25.239,2.214 55.346,18.597 74.414,33.666 z" />
    <path
       style="fill:#eb1758"
       inkscape:connector-curvature="0"
       id="path33"
       d="m 224.697,-205.543 c 5.313,2.324 10.958,16.60399 6.973,27.22999 -2.346,6.257 -7.327,12.806 -17.599,10.626 -10.959,-2.324 -16.194,-12.82 -13.616,-21.585 3.321,-11.28899 15.966,-19.89199 24.242,-16.27099 z" />
    <path
       style="fill:#010001"
       inkscape:connector-curvature="0"
       id="path35"
       d="m 97.778,7.2809973 c -2.167,0.181 -4.082,-1.404 -4.309,-3.567 -1.208,-11.486 0.729,-14.7310003 5.528,-17.6600003 1.348,-0.822 2.321,-1.417 3.366,-3.297 7.174,-12.911 72.193,-98.826997 90.438,-113.422997 4.33,-3.466 8.06,-4.791 11.403,-4.058 2.684,0.59 4.802,2.404 6.295,5.392 v 0.001 c 0.991,1.982 1.364,4.039 1.693,5.854 0.304,1.673 0.565,3.117 1.215,4.286 1.722,3.1 0.502,7.982 -4.908,24.385997 -1.481,4.49 -2.879,8.73 -3.689,11.788 -0.588,2.223 -1.234,4.628 -1.893,7.058 4.208,-5.523 8.568,-11.198 11.497,-14.887 2.387,-3.004 23.638,-29.278997 34.706,-27.353997 3.161,0.554 5.683,2.216 7.294,4.808 4.692,7.547 0.569,21.613997 -3.069,34.025997 -1.088,3.714 -2.116,7.222 -2.697,9.923 l -0.068,0.317 -0.996,2.521 c -1.445,3.644 -5.241,13.212 -6.394,18.542 0.177,-0.193 0.368,-0.407 0.575,-0.643 1.372,-1.562 3.08,-3.505 5.823,-3.669 1.157,-0.06 2.909,0.188 4.708,1.8 1.829,1.638 5.381,6.355 -1.124,14.751 -3.964,5.117 -16.465,16.18 -22.741,12.33 -0.361,0.011 -1.141,0.195 -1.674,0.322 -2.815,0.669 -8.054,1.911 -12.438,-4.037 -5.783,-7.85 -3.047,-18.352 4.023,-34.986 1.963,-4.619 3.783,-9.212 5.396,-13.466 -2.666,3.482 -5.564,7.417 -8.561,11.725 -14.553,20.921 -23.337,33.548 -34.237,36.144 -7.185,1.705 -12.956,-6.683 -14.039,-8.383 l -0.795,-1.249 0.209,-1.466 c 0.11,-0.768 2.721,-18.945 5.834,-31.399 1.436,-5.744 3.018,-11.896 4.736,-17.969 -25.395,30.693 -47.99,66.114 -60.977,86.4740003 l -3.754,5.876 -1.486,0.406 c -5.026,1.371 -9.271,2.316 -14.89,2.783 z" />
    <path
       style="fill:url(#b)"
       inkscape:connector-curvature="0"
       id="path37"
       d="m 206.913,-127.543 c 1.557,3.113 1.15,6.984 2.989,10.295 1.661,2.988 -6.403,23.527997 -8.966,33.206997 -2.989,11.291 -7.417,27.119 -7.417,27.119 0,0 16.571,-22.056 24.02,-31.437 8.967,-11.29 24.533,-27.012997 30.883,-25.900997 13.283,2.324 1.162,30.691997 -1.694,43.975997 -3.254,8.302 -11.175,27.143 -6.317,27.711 6.019,0.706 7.32,-8.504 11.208,-5.021 6.766,6.06 -15.273,23.246 -19.136,20.671 -3.486,-2.325 -8.302,3.652 -12.951,-2.657 -4.098,-5.563 -3.044,-13.338 4.484,-31.049 7.527,-17.71 12.895,-34.813 12.895,-34.813 0,0 -10.611,11.38 -23.024,29.223 -14.168,20.367 -22.581,32.322 -31.88,34.536 -4.782,1.139 -9.739,-6.641 -9.739,-6.641 0,0 2.656,-18.598 5.755,-30.995 3.1,-12.397 6.642,-25.681 10.627,-36.306997 -32.765,35.863997 -62.874,84.126997 -77.042,106.2649973 -4.871,1.329 -8.855,2.214 -14.169,2.656 -1.771,-16.8250003 3.984,-10.626 8.412,-18.5960003 7.158,-12.883 71.729,-98.072997 89.44,-112.241997 6.233,-4.987 9.63,-3.986 11.622,0" />
    <path
       inkscape:connector-curvature="0"
       id="path39"
       d="m 231.652,32.221997 c -0.605,0 -1.155,-0.052 -1.811,-0.12 -3.7,-0.384 -6.65,-1.993 -9.504,-3.55 -5.427,-2.961 -8.038,-7.93 -9.292,-10.318 -0.694,-1.32 -2.768,-5.444 -3.267,-8.4349997 -3.628,-1.883 -6.007,-6.862 -6.032,-6.917 -2.679,-5.803 1.763,-13.2090003 3.903,-15.0450003 13.266,-11.377 36.121,-12.605 45.331,-12.605 1.983,0 3.407,0.058 4.251,0.106 4.196,0.24 5.828,0.525 10.19,1.288 3.108,0.543 7.805,1.363 16.1,2.626 20.288,3.086 31.259,4.696 39.513,4.696 1.741,0 3.318,-0.072 4.822,-0.223 10.335,-1.029 30.64,-5.439 33.512,-14.76 0.373,-1.211 1.448,-5.354 -0.376,-7.869 -0.768,-1.059 -1.964,-1.731 -4.413,-2.483 -3.601,-1.104 -7.641,-1.688 -11.682,-1.688 -3.259,0 -5.404,0.379 -5.426,0.383 l -0.176,0.028 -5.958,0.817 c -24.256,3.331 -34.296,4.71 -42.124,4.71 -2.426,0 -4.773,-0.134 -7.389,-0.419 -4.71,-0.517 -11.847,-4.844 -16.392,-13.127 -3.794,-6.916 -4.948,-16.899 0.188,-22.599 2.25,-2.497 5.009,-3.347 6.187,-3.71 l 0.215,-0.067 c 17.741,-6.7 54.647,-26.059997 55.232,-43.039997 0.158,-4.572 -2.151,-10.928 -6.158,-13.225 -1.667,-0.956 -3.609,-1.21 -5.857,-1.504 -1.129,-0.147 -2.265,-0.222 -3.38,-0.222 -3.655,0 -6.739,0.779 -9.46,1.466 -0.083,0.021 -8.851,2.296 -16.572,7.52 -0.304,0.205 -3.063,2.087 -5.834,4.415 -1.313,1.104 -1.995,1.678 -2.367,2.047 l -0.42,0.427 c -0.652,0.667 -1.392,1.424 -2.561,2.296 -0.07,0.053 -0.712,0.529 -1.461,0.99 -4.243,2.615 -8.144,3.164 -10.668,3.165 -1.825,0 -3.038,-0.283 -3.366,-0.369 -1.683,-0.453 -5.847,-1.941 -8.573,-6.086 -0.642,-0.979 -2.137,-3.256 -2.239,-6.315 -0.298,-8.962 11.624,-16.395 16.57,-17.46 l -0.001,0.001 c -0.016,0 0.477,-0.163 0.934,-0.579 0.347,-0.315 0.708,-0.81 0.833,-1.022 l 0.053,-0.121 c 5.905,-13.217 28.746,-26.895 46.111,-27.614 0.823,-0.034 1.641,-0.052 2.445,-0.052 19.805,0 35.438,10.55 40.802,27.533 5.884,18.63 -9.339,45.045997 -29.834,64.602997 6.299,-1.239 12.545,-1.876 18.566,-1.876 20.94,0 38.17,7.639 46.088,20.434 4.465,7.214 8.122,19.738 4.996,33.256 -3.622,15.66 -14.797,24.4920003 -20.167,28.7370003 C 353.101,18.235997 325.189,18.384997 311.775,18.456997 l -0.844,0.002 c -5.045,0 -11.036,-0.229 -17.379,-0.472 -7.021,-0.27 -14.281,-0.548 -21.021,-0.548 -10.422,0 -17.302,0.685 -21.032,2.093 -5.467,2.063 -11.303,5.489 -12.007,7.05 -1.031,2.373 -2.523,4.008 -4.458,4.914 -1.046,0.488 -2.151,0.726 -3.382,0.726 z" />
    <path
       style="fill:url(#c)"
       inkscape:connector-curvature="0"
       id="path41"
       d="m 308.768,-70.961003 c 34.771,-13.479 67.48,-6.793 78.75,11.417 4.477,7.232 7.143,18.825 4.5,30.25 -3.239,14.006 -13.142,22.0670003 -18.75,26.5000003 -21.12,16.6939997 -47.294,17.1739997 -61.5,17.2499997 -17.904,0.097 -49.969,-3.082 -61.667,1.333 -1.555,0.587 -12.371,4.94 -14.25,9.167 -0.195,0.438 -0.86,2.148 -2.5,2.917 -0.977,0.457 -1.864,0.376 -3.083,0.25 -2.84,-0.295 -5.237,-1.576 -8,-3.083 v -0.001 c -4.276,-2.332 -6.455,-6.36 -7.667,-8.666 -0.987,-1.878 -2.914,-6.056 -2.917,-7.7499997 0,-0.141 0.012,-0.713 -0.333,-1.25 -0.441,-0.688 -1.206,-0.914 -1.411,-0.983 -1.871,-0.633 -4.015,-4.03 -4.547,-5.184 -1.757,-3.806 1.784,-9.397 2.875,-10.333 13.75,-11.7920003 40.094,-11.9230003 46.75,-11.5420003 6.897,0.396 6.308,0.892 25.917,3.875 23.874,3.632 36.001,5.43 45.333,4.5 3.029,-0.302 32.613,-3.525 36.937,-17.563 0.308,-0.998 2.178,-7.069 -0.96,-11.396 -1.536,-2.117 -3.773,-3.129 -6.478,-3.959 -10.037,-3.078 -19,-1.416 -19,-1.416 -37.083,5.083 -44.237,6.216 -54.493,5.095 -3.129,-0.343 -9.292,-3.734 -13.319,-11.074 -2.914,-5.311 -4.255,-13.661 -0.348,-17.997 1.782,-1.978 4.144,-2.449 4.803,-2.698 11.029,-4.165 57.109,-24.974 57.857,-46.658997 0.192,-5.572 -2.482,-13.574 -8.167,-16.833 -2.354,-1.35 -4.861,-1.677 -7.333,-2 -5.85,-0.764 -10.394,0.338 -14.333,1.333 0,0 -9.393,2.373 -17.834,8.084 -1.095,0.741 -3.672,2.57 -6.166,4.666 -1.41,1.186 -2.116,1.777 -2.615,2.274 -0.769,0.766 -1.397,1.49 -2.552,2.353 0,0 -0.548,0.409 -1.166,0.79 -5.951,3.668 -10.917,2.333 -10.917,2.333 -0.962,-0.259 -4.18,-1.269 -6.25,-4.416 -0.526,-0.802 -1.519,-2.311 -1.583,-4.25 -0.213,-6.4 9.834,-12.647 13.417,-13.417 0.381,-0.082 1.627,-0.479 2.781,-1.531 0.809,-0.736 1.615,-1.861 1.844,-2.469 5.25,-11.75 26.703,-24.59 42.625,-25.25 20.083,-0.833 34.417,9.333 39.267,24.689 6.444,20.405 -16.184,53.477997 -43.517,72.643997 z" />
  </g>
</svg>
